{
  "extends": ["gitlab>html-validate/renovate-config"],
  "packageRules": [
    {
      "matchPackageNames": ["cypress"],
      "matchUpdateTypes": ["major"],
      "commitMessageAction": "support",
      "commitMessageTopic": "cypress",
      "commitMessageExtra": "v{{newMajor}}",
      "semanticCommitType": "feat"
    }
  ]
}
