// Jest Snapshot v1, https://goo.gl/fbAQLP

exports[`general [FAIL] should report error when an action causes document to be invalid 1`] = `
{
  "error": "2 errors, 0 excluded: expected 2 to equal 0",
  "result": "failed",
}
`;

exports[`general [FAIL] should report error when invalid page is loaded 1`] = `
{
  "error": "1 error, 0 excluded: expected 1 to equal 0",
  "result": "failed",
}
`;

exports[`general [PASS] should not report error when a valid page is loaded 1`] = `
{
  "result": "passed",
}
`;

exports[`general [PASS] should not report errors outside included elements 1`] = `
{
  "result": "passed",
}
`;

exports[`general [PASS] should not report excluded errors 1`] = `
{
  "result": "passed",
}
`;

exports[`general with subject [FAIL] should fail if descendant of subject is invalid 1`] = `
{
  "error": "1 error, 0 excluded: expected 1 to equal 0",
  "result": "failed",
}
`;

exports[`general with subject [FAIL] should fail if subject is inside globally excluded element 1`] = `
{
  "error": "Selected element is being excluded by global configuration",
  "result": "failed",
}
`;

exports[`general with subject [FAIL] should fail if subject is invalid 1`] = `
{
  "error": "1 error, 0 excluded: expected 1 to equal 0",
  "result": "failed",
}
`;

exports[`general with subject [FAIL] should fail if subject is outside globally included element 1`] = `
{
  "error": "Selected element is being excluded by global configuration",
  "result": "failed",
}
`;

exports[`general with subject [FAIL] should report error when selecting invalid element 1`] = `
{
  "error": "1 error, 0 excluded: expected 1 to equal 0",
  "result": "failed",
}
`;

exports[`general with subject [PASS] should not report error when selecting valid element 1`] = `
{
  "result": "passed",
}
`;

exports[`general with subject [PASS] should pass if subject is included and not excluded 1`] = `
{
  "result": "passed",
}
`;

exports[`options [FAIL] should support passing both config and options 1`] = `
{
  "error": "1 error, 1 excluded: expected 1 to equal 0",
  "result": "failed",
}
`;

exports[`options [PASS] should support passing custom configuration 1`] = `
{
  "result": "passed",
}
`;

exports[`options [PASS] should support passing custom options 1`] = `
{
  "result": "passed",
}
`;
